,date,city,rent,product
0,2022-01-01,Karabük,3,1979
1,2022-01-02,Balıkesir,7,1263
2,2022-01-03,İçel (Mersin),7,1885
3,2022-01-04,İstanbul,1,1549
4,2022-01-05,Şırnak,14,1215
5,2022-01-06,Antalya,2,1142
6,2022-01-07,Burdur,1,1033
7,2022-01-08,Zonguldak,9,1378
8,2022-01-09,Hatay,14,1349
9,2022-01-10,Karabük,12,1627
10,2022-01-11,Iğdır,4,1385
11,2022-01-12,Bitlis,1,1092
12,2022-01-13,Kastamonu,13,1081
13,2022-01-14,Tekirdağ,9,1112
14,2022-01-15,İzmir,3,1758
15,2022-01-16,Manisa,16,1960
16,2022-01-17,Şırnak,1,1528
17,2022-01-18,Bartın,10,1598
18,2022-01-19,Bolu,17,1491
19,2022-01-20,Kırşehir,8,1431
20,2022-01-21,Düzce,8,1638
21,2022-01-22,Balıkesir,2,1586
22,2022-01-23,Siirt,16,1361
23,2022-01-24,Iğdır,1,1712
24,2022-01-25,Isparta,1,1442
25,2022-01-26,Ağrı,17,1194
26,2022-01-27,Ordu,10,1553
27,2022-01-28,İzmir,12,1713
28,2022-01-29,Muş,1,1126
29,2022-01-30,Karabük,11,1539
30,2022-01-31,Giresun,10,1231
31,2022-02-01,Yalova,4,1811
32,2022-02-02,Kayseri,13,1958
33,2022-02-03,Kahramanmaraş,10,1518
34,2022-02-04,Trabzon,11,1768
35,2022-02-05,Ardahan,4,1205
36,2022-02-06,Adana,1,1904
37,2022-02-07,Bilecik,16,1343
38,2022-02-08,Eskişehir,12,1922
39,2022-02-09,Antalya,6,1012
40,2022-02-10,Karaman,2,1535
41,2022-02-11,Zonguldak,2,1310
42,2022-02-12,Giresun,7,1879
43,2022-02-13,Erzincan,9,1015
44,2022-02-14,Niğde,15,1626
45,2022-02-15,Sinop,15,1776
46,2022-02-16,Muş,7,1961
47,2022-02-17,Mardin,14,1846
48,2022-02-18,Ardahan,11,1112
49,2022-02-19,Bolu,17,1496
50,2022-02-20,Edirne,1,1669
51,2022-02-21,Zonguldak,8,1942
52,2022-02-22,Yalova,17,1699
53,2022-02-23,Mardin,12,1938
54,2022-02-24,Bingöl,11,1902
55,2022-02-25,Karabük,13,1595
56,2022-02-26,Çorum,7,1447
57,2022-02-27,Kütahya,7,1003
58,2022-02-28,Kahramanmaraş,16,1110
59,2022-03-01,Muş,13,1812
60,2022-03-02,Bartın,9,1456
61,2022-03-03,Ağrı,7,1070
62,2022-03-04,Tunceli,14,1908
63,2022-03-05,Muğla,13,1256
64,2022-03-06,Şırnak,15,1988
65,2022-03-07,Manisa,2,1763
66,2022-03-08,Tekirdağ,4,1700
67,2022-03-09,Amasya,5,1101
68,2022-03-10,Kars,8,1204
69,2022-03-11,Kırıkkale,14,1186
70,2022-03-12,Trabzon,7,1251
71,2022-03-13,Kastamonu,7,1553
72,2022-03-14,Burdur,17,1626
73,2022-03-15,Gümüşhane,6,1843
74,2022-03-16,Karabük,13,1306
75,2022-03-17,Kahramanmaraş,3,1800
76,2022-03-18,Kırıkkale,12,1307
77,2022-03-19,İzmir,2,1657
78,2022-03-20,Ağrı,3,1537
79,2022-03-21,Trabzon,10,1284
80,2022-03-22,Şırnak,15,1730
81,2022-03-23,Ankara,5,1508
82,2022-03-24,Tunceli,2,1681
83,2022-03-25,Edirne,7,1043
84,2022-03-26,Muğla,16,1387
85,2022-03-27,Yalova,6,1246
86,2022-03-28,Kayseri,15,1742
87,2022-03-29,Gaziantep,14,1785
88,2022-03-30,Kastamonu,14,1853
89,2022-03-31,Eskişehir,13,1838
90,2022-04-01,Samsun,9,1890
91,2022-04-02,Afyon,3,1433
92,2022-04-03,Sinop,11,1982
93,2022-04-04,Kırklareli,16,1389
94,2022-04-05,Uşak,11,1686
95,2022-04-06,Tokat,2,1084
96,2022-04-07,Elazığ,6,1245
97,2022-04-08,Van,1,1716
98,2022-04-09,Şanlıurfa,1,1871
99,2022-04-10,Diyarbakır,12,1469
100,2022-04-11,Kırklareli,17,1492
101,2022-04-12,Bursa,6,1831
102,2022-04-13,Aksaray,2,1494
103,2022-04-14,Hakkari,15,1058
104,2022-04-15,İçel (Mersin),11,1791
105,2022-04-16,Uşak,3,1696
106,2022-04-17,Adıyaman,13,1906
107,2022-04-18,İstanbul,5,1520
108,2022-04-19,Kırıkkale,14,1081
109,2022-04-20,Bolu,13,1753
110,2022-04-21,Batman,2,1680
111,2022-04-22,Kastamonu,11,1901
112,2022-04-23,Kars,16,1175
113,2022-04-24,Hakkari,8,1048
114,2022-04-25,Kilis,5,1068
115,2022-04-26,Adıyaman,2,1913
116,2022-04-27,Bilecik,16,1031
117,2022-04-28,Niğde,9,1441
118,2022-04-29,Van,15,1661
119,2022-04-30,Ordu,3,1526
120,2022-05-01,Gümüşhane,6,1399
121,2022-05-02,Sakarya,2,1189
122,2022-05-03,Kilis,13,1928
123,2022-05-04,Aksaray,11,1790
124,2022-05-05,Şanlıurfa,3,1755
125,2022-05-06,Isparta,12,1910
126,2022-05-07,Muş,7,1728
127,2022-05-08,Sinop,16,1245
128,2022-05-09,Batman,5,1956
129,2022-05-10,Şırnak,7,1259
130,2022-05-11,Kastamonu,15,1557
131,2022-05-12,Bitlis,17,1349
132,2022-05-13,Çankırı,4,1806
133,2022-05-14,Van,14,1488
134,2022-05-15,Konya,1,1630
135,2022-05-16,Gaziantep,6,1015
136,2022-05-17,Mardin,12,1365
137,2022-05-18,Kastamonu,14,1442
138,2022-05-19,Isparta,1,1906
139,2022-05-20,Karaman,2,1948
140,2022-05-21,Uşak,4,1327
141,2022-05-22,İçel (Mersin),9,1789
142,2022-05-23,Adana,5,1962
143,2022-05-24,Karabük,1,1470
144,2022-05-25,Bilecik,10,1880
145,2022-05-26,Kırşehir,1,1800
146,2022-05-27,Konya,5,1162
147,2022-05-28,Adana,13,1983
148,2022-05-29,Malatya,9,1038
149,2022-05-30,Kars,12,1918
150,2022-05-31,Nevşehir,2,1170
151,2022-06-01,Erzincan,4,1390
152,2022-06-02,Çankırı,15,1134
153,2022-06-03,Sivas,5,1145
154,2022-06-04,Ordu,7,1356
155,2022-06-05,Malatya,3,1786
156,2022-06-06,Edirne,6,1234
157,2022-06-07,Malatya,9,1803
158,2022-06-08,Aksaray,1,1673
159,2022-06-09,Konya,11,1468
160,2022-06-10,Karabük,7,1188
161,2022-06-11,Adıyaman,10,1421
162,2022-06-12,Nevşehir,14,1534
163,2022-06-13,Balıkesir,1,1491
164,2022-06-14,Manisa,16,1131
165,2022-06-15,Sinop,1,1460
166,2022-06-16,Osmaniye,2,1373
167,2022-06-17,Batman,11,1345
168,2022-06-18,Zonguldak,7,1792
169,2022-06-19,Kocaeli,14,1168
170,2022-06-20,Uşak,7,1211
171,2022-06-21,Balıkesir,2,1290
172,2022-06-22,Artvin,13,1641
173,2022-06-23,Elazığ,1,1942
174,2022-06-24,Balıkesir,13,1773
175,2022-06-25,İzmir,7,1971
176,2022-06-26,Karaman,14,1148
177,2022-06-27,Trabzon,2,1400
178,2022-06-28,Düzce,7,1889
179,2022-06-29,Iğdır,12,1155
180,2022-06-30,Adıyaman,15,1324
181,2022-07-01,Isparta,13,1593
182,2022-07-02,Ordu,10,1259
183,2022-07-03,İzmir,15,1452
184,2022-07-04,Erzincan,17,1400
185,2022-07-05,Ankara,6,1766
186,2022-07-06,Mardin,17,1502
187,2022-07-07,Tunceli,9,1977
188,2022-07-08,Düzce,6,1267
189,2022-07-09,Tunceli,4,1043
190,2022-07-10,Hakkari,3,1724
191,2022-07-11,Erzurum,13,1169
192,2022-07-12,Balıkesir,16,1633
193,2022-07-13,Yalova,4,1212
194,2022-07-14,Hakkari,14,1644
195,2022-07-15,Kocaeli,17,1463
196,2022-07-16,Edirne,4,1348
197,2022-07-17,Karaman,10,1411
198,2022-07-18,Ankara,14,1232
199,2022-07-19,Sinop,8,1593
200,2022-07-20,Kahramanmaraş,4,1135
201,2022-07-21,Şırnak,1,1074
202,2022-07-22,Çanakkale,5,1911
203,2022-07-23,Ordu,5,1938
204,2022-07-24,Kayseri,17,1933
205,2022-07-25,Antalya,11,1368
206,2022-07-26,Ordu,1,1472
207,2022-07-27,Muş,9,1089
208,2022-07-28,Osmaniye,14,1643
209,2022-07-29,Malatya,13,1703
210,2022-07-30,Bayburt,13,1696
211,2022-07-31,Denizli,7,1825
212,2022-08-01,İçel (Mersin),3,1616
213,2022-08-02,Trabzon,13,1929
214,2022-08-03,Burdur,4,1592
215,2022-08-04,İzmir,4,1648
216,2022-08-05,Nevşehir,1,1854
217,2022-08-06,Eskişehir,2,1785
218,2022-08-07,Batman,15,1781
219,2022-08-08,Manisa,8,1712
220,2022-08-09,Sivas,7,1053
221,2022-08-10,Bingöl,8,1291
222,2022-08-11,Edirne,9,1187
223,2022-08-12,Muş,9,1244
224,2022-08-13,Zonguldak,6,1479
225,2022-08-14,Düzce,17,1152
226,2022-08-15,Karaman,11,1547
227,2022-08-16,Amasya,15,1231
228,2022-08-17,Karabük,9,1831
229,2022-08-18,Afyon,7,1948
230,2022-08-19,Yalova,5,1059
231,2022-08-20,Isparta,8,1769
232,2022-08-21,Kütahya,1,1962
233,2022-08-22,Kayseri,6,1331
234,2022-08-23,Manisa,2,1207
235,2022-08-24,Bayburt,8,1746
236,2022-08-25,Manisa,11,1169
237,2022-08-26,Nevşehir,9,1925
238,2022-08-27,Erzincan,3,1559
239,2022-08-28,Ağrı,4,1977
240,2022-08-29,Sivas,9,1301
241,2022-08-30,Isparta,6,1125
242,2022-08-31,Yozgat,9,1032
243,2022-09-01,Şırnak,5,1710
244,2022-09-02,Van,16,1776
245,2022-09-03,Eskişehir,4,1655
246,2022-09-04,Batman,17,1037
247,2022-09-05,Bitlis,2,1630
248,2022-09-06,Osmaniye,8,1162
249,2022-09-07,Ordu,10,1680
250,2022-09-08,Artvin,16,1595
251,2022-09-09,Hakkari,12,1881
252,2022-09-10,Nevşehir,9,1288
253,2022-09-11,Balıkesir,3,1420
254,2022-09-12,Ankara,3,1816
255,2022-09-13,Samsun,17,1619
256,2022-09-14,Samsun,7,1209
257,2022-09-15,Manisa,15,1377
258,2022-09-16,İstanbul,17,1673
259,2022-09-17,Ankara,5,1904
260,2022-09-18,Muğla,4,1415
261,2022-09-19,Adana,4,1333
262,2022-09-20,Şanlıurfa,6,1350
263,2022-09-21,Bilecik,4,1104
264,2022-09-22,Mardin,12,1084
265,2022-09-23,Mardin,16,1436
266,2022-09-24,Antalya,6,1682
267,2022-09-25,Erzincan,7,1356
268,2022-09-26,Gümüşhane,8,1707
269,2022-09-27,Trabzon,6,1610
270,2022-09-28,Tokat,7,1440
271,2022-09-29,Balıkesir,17,1505
272,2022-09-30,Hatay,8,1680
273,2022-10-01,Van,15,1974
274,2022-10-02,Eskişehir,9,1466
275,2022-10-03,Hatay,10,1447
276,2022-10-04,Artvin,6,1496
277,2022-10-05,İzmir,4,1148
278,2022-10-06,Yalova,7,1667
279,2022-10-07,Elazığ,8,1583
280,2022-10-08,Batman,11,1627
281,2022-10-09,Siirt,15,1660
282,2022-10-10,Eskişehir,10,1581
283,2022-10-11,Bitlis,8,1031
284,2022-10-12,İzmir,7,1725
285,2022-10-13,Diyarbakır,2,1304
286,2022-10-14,Kahramanmaraş,3,1514
287,2022-10-15,Şırnak,3,1319
288,2022-10-16,Burdur,9,1217
289,2022-10-17,Bingöl,8,1597
290,2022-10-18,Van,4,1722
291,2022-10-19,Kocaeli,11,1949
292,2022-10-20,Kilis,13,1308
293,2022-10-21,Kütahya,3,1707
294,2022-10-22,Kars,14,1332
295,2022-10-23,Kırklareli,3,1325
296,2022-10-24,Kırıkkale,15,1128
297,2022-10-25,Muğla,14,1494
298,2022-10-26,Yozgat,10,1670
299,2022-10-27,Isparta,17,1125
300,2022-10-28,Elazığ,9,1287
301,2022-10-29,Antalya,1,1672
302,2022-10-30,Manisa,11,1706
303,2022-10-31,Denizli,17,1768
304,2022-11-01,Eskişehir,17,1477
305,2022-11-02,Niğde,2,1364
306,2022-11-03,Eskişehir,7,1757
307,2022-11-04,Şırnak,11,1342
308,2022-11-05,Kilis,3,1599
309,2022-11-06,Kars,16,1816
310,2022-11-07,Tokat,7,1041
311,2022-11-08,Batman,16,1366
312,2022-11-09,Edirne,11,1565
313,2022-11-10,Çankırı,14,1103
314,2022-11-11,Samsun,16,1137
315,2022-11-12,Bilecik,2,1212
316,2022-11-13,Manisa,7,1198
317,2022-11-14,Çankırı,2,1205
318,2022-11-15,Kırklareli,17,1305
319,2022-11-16,Elazığ,15,1800
320,2022-11-17,Gümüşhane,13,1669
321,2022-11-18,Konya,7,1460
322,2022-11-19,Kırklareli,11,1911
323,2022-11-20,Denizli,3,1196
324,2022-11-21,Van,9,1541
325,2022-11-22,Balıkesir,12,1637
326,2022-11-23,Şırnak,7,1361
327,2022-11-24,Van,12,1734
328,2022-11-25,Sivas,6,1724
329,2022-11-26,Eskişehir,4,1182
330,2022-11-27,Hakkari,12,1688
331,2022-11-28,Ağrı,9,1863
332,2022-11-29,Ağrı,5,1255
333,2022-11-30,Yalova,12,1278
334,2022-12-01,Kırklareli,6,1493
335,2022-12-02,Isparta,4,1005
336,2022-12-03,Kocaeli,9,1213
337,2022-12-04,Kocaeli,16,1984
338,2022-12-05,Kocaeli,16,1135
339,2022-12-06,Ankara,9,1561
340,2022-12-07,Artvin,3,1516
341,2022-12-08,Ardahan,13,1100
342,2022-12-09,Siirt,4,1305
343,2022-12-10,Osmaniye,3,1856
344,2022-12-11,Tunceli,7,1725
345,2022-12-12,Nevşehir,15,1845
346,2022-12-13,Erzincan,8,1587
347,2022-12-14,Afyon,14,1692
348,2022-12-15,Aydın,13,1163
349,2022-12-16,Batman,16,1422
350,2022-12-17,Diyarbakır,15,1045
351,2022-12-18,Batman,5,1737
352,2022-12-19,Çanakkale,6,1667
353,2022-12-20,Muş,7,1290
354,2022-12-21,Tunceli,9,1658
355,2022-12-22,Tunceli,14,1793
356,2022-12-23,Bilecik,10,1532
357,2022-12-24,Giresun,13,1974
358,2022-12-25,Artvin,10,1404
359,2022-12-26,Rize,13,1204
360,2022-12-27,Çankırı,6,1287
361,2022-12-28,Adana,14,1913
362,2022-12-29,Bitlis,17,1304
363,2022-12-30,Bingöl,15,1776
